<?xml version="1.0" encoding="utf-8"?>
<!-- Generator: Adobe Illustrator 16.0.0, SVG Export Plug-In . SVG Version: 6.00 Build 0)  -->
<!DOCTYPE svg PUBLIC "-//W3C//DTD SVG 1.1//EN" "http://www.w3.org/Graphics/SVG/1.1/DTD/svg11.dtd">
<svg version="1.1" id="Layer_1" xmlns="http://www.w3.org/2000/svg" xmlns:xlink="http://www.w3.org/1999/xlink" x="0px" y="0px"
	 width="80.012px" height="80.037px" viewBox="0 0 80.012 80.037" enable-background="new 0 0 80.012 80.037" xml:space="preserve">
<path fill="#A0DAE3" d="M40.019,80c22.091,0,40-17.908,40-40c0-22.09-17.909-40-40-40s-40,17.909-40,40
	C0.019,62.092,17.928,80,40.019,80"/>
<g>
	<path fill="#F3F4F1" d="M68.698,30.002h-9.933c-0.965,0-1.747,0.78-1.747,1.745c0,0.966,0.782,1.747,1.747,1.747h9.933
		c0.965,0,1.746-0.781,1.746-1.747C70.444,30.782,69.663,30.002,68.698,30.002 M67.219,35.438c-0.888-0.382-1.915,0.027-2.297,0.913
		l-4.829,11.211c-0.382,0.885,0.027,1.914,0.913,2.295c0.226,0.096,0.46,0.145,0.69,0.145c0.676,0,1.32-0.396,1.605-1.059
		l4.829-11.21C68.513,36.848,68.104,35.82,67.219,35.438"/>
	<g>
		<path fill="#F3F4F1" d="M52.03,30.674c-0.784-0.562-1.875-0.38-2.438,0.404c-0.561,0.785-0.379,1.876,0.405,2.438
			c0.812,0.581,1.302,1.46,1.341,2.414c0.002,0.019,0.002,0.038,0.004,0.058v7.96c0,1.02-0.5,1.952-1.371,2.562
			c-0.791,0.554-0.982,1.642-0.431,2.433c0.34,0.485,0.884,0.745,1.435,0.745c0.345,0,0.694-0.102,0.998-0.315
			c1.793-1.254,2.862-3.28,2.862-5.424v-8.092c0-0.078-0.004-0.155-0.014-0.229C54.69,33.653,53.681,31.854,52.03,30.674
			 M46.448,46.497c-0.846-0.606-1.334-1.524-1.34-2.521c0-0.012,0-0.024,0-0.037v-7.934c0.002-0.022,0.004-0.043,0.004-0.065
			c0.039-0.947,0.525-1.823,1.328-2.403c0.783-0.564,0.959-1.656,0.395-2.438c-0.564-0.783-1.656-0.959-2.439-0.395
			c-1.633,1.179-2.635,2.969-2.765,4.93c-0.011,0.077-0.016,0.155-0.016,0.232v8.096c0.001,2.11,1.047,4.121,2.798,5.377
			c0.309,0.22,0.664,0.327,1.016,0.327c0.545,0,1.082-0.255,1.422-0.73C47.412,48.15,47.231,47.058,46.448,46.497 M11.443,38.104
			h0.018c0.956,0,1.736-0.771,1.746-1.729c0-0.056,0.002-0.11,0.007-0.173c0.053-0.771,0.405-1.474,0.987-1.98
			c0.584-0.507,1.329-0.756,2.1-0.701c0.771,0.053,1.473,0.404,1.98,0.987c0.507,0.583,0.757,1.328,0.702,2.099
			c-0.043,0.617-0.236,1.152-0.544,1.504c-0.677,0.778-2.902,2.967-3.702,3.746c-0.692,0.673-0.707,1.778-0.034,2.47
			c0.342,0.353,0.797,0.529,1.252,0.529c0.439,0,0.879-0.165,1.218-0.494c0.122-0.119,2.989-2.91,3.9-3.954
			c0.815-0.936,1.298-2.166,1.395-3.557c0.12-1.702-0.431-3.347-1.55-4.635c-1.118-1.288-2.672-2.062-4.373-2.182
			c-1.7-0.118-3.347,0.432-4.636,1.552c-1.287,1.117-2.061,2.671-2.18,4.365c-0.009,0.131-0.014,0.261-0.016,0.39
			C9.704,37.304,10.478,38.094,11.443,38.104 M35.705,30.674c-0.785-0.562-1.876-0.38-2.438,0.404
			c-0.56,0.785-0.379,1.876,0.405,2.438c0.813,0.581,1.302,1.46,1.341,2.414c0,0.019,0.002,0.038,0.004,0.058v7.96
			c0,1.02-0.5,1.952-1.371,2.562c-0.791,0.554-0.983,1.642-0.43,2.433c0.34,0.485,0.881,0.745,1.432,0.745
			c0.347,0,0.695-0.102,1-0.315c1.793-1.254,2.863-3.28,2.863-5.424v-8.092c0-0.078-0.006-0.155-0.016-0.229
			C38.365,33.653,37.354,31.854,35.705,30.674 M20.737,46.524h-9.256c-0.965,0-1.746,0.782-1.746,1.747
			c0,0.964,0.781,1.747,1.746,1.747h9.256c0.965,0,1.748-0.783,1.748-1.747C22.485,47.306,21.702,46.524,20.737,46.524
			 M30.122,46.497c-0.848-0.606-1.334-1.524-1.34-2.521c0.001-0.012,0.001-0.024,0-0.037v-7.934
			c0.001-0.022,0.003-0.043,0.004-0.065c0.04-0.947,0.523-1.823,1.328-2.403c0.783-0.564,0.959-1.656,0.395-2.438
			c-0.564-0.783-1.656-0.959-2.439-0.395c-1.633,1.179-2.634,2.969-2.765,4.93c-0.01,0.077-0.015,0.155-0.015,0.232v8.055
			c0,0.014,0,0.027,0,0.041c0,2.11,1.046,4.121,2.798,5.377c0.309,0.22,0.664,0.327,1.016,0.327c0.545,0,1.08-0.255,1.422-0.73
			C31.087,48.15,30.906,47.058,30.122,46.497"/>
	</g>
</g>
</svg>
